[
  {
    "_id": 101,
    "transaction_type":"card",
    "transaction_date":"2019-01-18",
    "transaction_amount":2000
  },
  {
    "_id": 102,
    "transaction_type":"cash",
    "transaction_date":"2019-02-18",
    "transaction_amount":5000
  },
  {
    "_id": 103,
    "transaction_type":"cash",
    "transaction_date":"2019-03-18",
    "transaction_amount":6000
  },
  {
    "_id": 104,
    "transaction_type":"card",
    "transaction_date":"2019-04-18",
    "transaction_amount":7000
  }
]